{
    "sunnyBoys":[
        {
            "name" : "pvachter1",
            "host" : "pvachterd1.lissensp.be",
            "port" : 502
        },
        {
            "name" : "pvachter2",
            "host" : "pvachterd2.lissensp.be",
            "port" : 502
        },
        {
            "name" : "pvvoor",
            "host" : "pvvoord.lissensp.be",
            "port" : 502
        }

    ],
    "modbus_mapping" : "resources/modbus_mapping.xls",
    "dataTypes":{
        
            "uint32" : 2,
            "uint16" : 1,
            "string16" :16,
            "string8" :8,
            "int16" : 1,
            "acc64" : 4,
            "acc32" : 2,
            "uint64": 4
        
    },
    "coreLogFile" : "sunnyBoyLogger.log",
    "condensedLogFile" : "sunnyBoyLogger_condensed.log",
    "logLevels": {
        "50": "CRITICAL",
        "40": "ERROR",
        "30": "WARNING",
        "20": "INFO",
        "10": "DEBUG",
        "0": "NOTSET"
      },
    
    "setCoreLevel": 20,
    "condensedRegisters" : 
    {   "VA": 40203,
        "W": 40199,
        "WH": 40209,
        "ActWh": 40302,
        "Ris": 40341,
        "WRtg": 40240
    }

}